^C:\USERS\SFP\DOCUMENTS\VISUAL STUDIO 2010\PROJECTS\TETRISWINDOWS\TETRISWINDOWS\PROPERTIES\RESOURCES.RESX|C:\USERS\SFP\DOCUMENTS\VISUAL STUDIO 2010\PROJECTS\TETRISWINDOWS\TETRISWINDOWS\V\TETRISVIEW.RESX
C:\USERS\SFP\DOCUMENTS\VISUAL STUDIO 2010\PROJECTS\TETRISWINDOWS\TETRISWINDOWS\OBJ\X86\DEBUG\TETRISWINDOWS.TETRISVIEW.RESOURCES
C:\USERS\SFP\DOCUMENTS\VISUAL STUDIO 2010\PROJECTS\TETRISWINDOWS\TETRISWINDOWS\OBJ\X86\DEBUG\TETRISWINDOWS.PROPERTIES.RESOURCES.RESOURCES
